…
``` r
month_df = 
  tibble(
    month = 1:12,
    month_name = month.name
  )

precip_df = 
  bind_rows(precip_2018, precip_2017) 

left_join(precip_df, month_df, by = "month")
```

    ## # A tibble: 24 x 4
    ##     year month total month_name
    ##    <dbl> <dbl> <dbl> <chr>     
    ##  1  2018     1  0.94 January   
    ##  2  2018     2  4.8  February  
    ##  3  2018     3  2.69 March     
    ##  4  2018     4  4.69 April     
    ##  5  2018     5  9.27 May       
    ##  6  2018     6  4.77 June      
    ##  7  2018     7 10.2  July      
    ##  8  2018     8  6.45 August    
    ##  9  2018     9 10.5  September 
    ## 10  2018    10  2.12 October   
    ## # … with 14 more rows
…
subway_tidy = subway_df %>%
pivot_longer(
    route1:route11,
    names_to = "route_number",
    values_to = "route_name")


subway_distinct = distinct(subway_tidy, station_name,line, .keep_all=TRUE) 

subway_distinct %>%
  group_by(route_name, ada) %>%
  count()
```

    ## # A tibble: 43 x 3
    ## # Groups:   route_name, ada [43]
    ##    route_name ada       n
    ##    <fct>      <lgl> <int>
    ##  1 1          FALSE    26
    ##  2 1          TRUE      6
    ##  3 2          FALSE    31
    ##  4 2          TRUE      7
    ##  5 3          FALSE    11
    ##  6 3          TRUE      1
    ##  7 4          FALSE    13
    ##  8 4          TRUE      3
    ##  9 5          FALSE     5
    ## 10 6          FALSE    28
    ## # … with 33 more rows
…
